…
$ carat   <dbl> 0.23, 0.21, 0.23, 0.29, 0.31, 0.24, 0.24, 0.26, 0.22, 0.23, 0.30, 0.23, 0.22, 0.31,…
$ cut     <ord> Ideal, Premium, Good, Premium, Good, Very Good, Very Good, Very Good, Fair, Very Go…
$ color   <ord> E, E, E, I, J, J, I, H, E, H, J, J, F, J, E, E, I, J, J, J, I, E, H, J, J, G, I, J,…
$ clarity <ord> SI2, SI1, VS1, VS2, SI2, VVS2, VVS1, SI1, VS2, VS1, SI1, VS1, SI1, SI2, SI2, I1, SI…
$ depth   <dbl> 61.5, 59.8, 56.9, 62.4, 63.3, 62.8, 62.3, 61.9, 65.1, 59.4, 64.0, 62.8, 60.4, 62.2,…
$ table   <dbl> 55, 61, 65, 58, 58, 57, 57, 55, 61, 61, 55, 56, 61, 54, 62, 58, 54, 54, 56, 59, 56,…
$ price   <int> 326, 326, 327, 334, 335, 336, 336, 337, 337, 338, 339, 340, 342, 344, 345, 345, 348…
$ x       <dbl> 3.95, 3.89, 4.05, 4.20, 4.34, 3.94, 3.95, 4.07, 3.87, 4.00, 4.25, 3.93, 3.88, 4.35,…
$ y       <dbl> 3.98, 3.84, 4.07, 4.23, 4.35, 3.96, 3.98, 4.11, 3.78, 4.05, 4.28, 3.90, 3.84, 4.37,…
$ z       <dbl> 2.43, 2.31, 2.31, 2.63, 2.75, 2.48, 2.47, 2.53, 2.49, 2.39, 2.73, 2.46, 2.33, 2.71,…
> colnames(diamonds)
 [1] "carat"   "cut"     "color"   "clarity" "depth"   "table"   "price"   "x"       "y"      
[10] "z"      
> rename(diamonds, carat_new = carat)
# A tibble: 53,940 × 10
   carat_new cut       color clarity depth table price     x     y     z
       <dbl> <ord>     <ord> <ord>   <dbl> <dbl> <int> <dbl> <dbl> <dbl>
 1      0.23 Ideal     E     SI2      61.5    55   326  3.95  3.98  2.43
 2      0.21 Premium   E     SI1      59.8    61   326  3.89  3.84  2.31
 3      0.23 Good      E     VS1      56.9    65   327  4.05  4.07  2.31
 4      0.29 Premium   I     VS2      62.4    58   334  4.2   4.23  2.63
 5      0.31 Good      J     SI2      63.3    58   335  4.34  4.35  2.75
 6      0.24 Very Good J     VVS2     62.8    57   336  3.94  3.96  2.48
 7      0.24 Very Good I     VVS1     62.3    57   336  3.95  3.98  2.47
 8      0.26 Very Good H     SI1      61.9    55   337  4.07  4.11  2.53
 9      0.22 Fair      E     VS2      65.1    61   337  3.87  3.78  2.49
10      0.23 Very Good H     VS1      59.4    61   338  4     4.05  2.39
# … with 53,930 more rows
# ℹ Use `print(n = ...)` to see more rows
> rename(diamonds, carat_new = carat, cut_new = cut)
# A tibble: 53,940 × 10
   carat_new cut_new   color clarity depth table price     x     y     z
       <dbl> <ord>     <ord> <ord>   <dbl> <dbl> <int> <dbl> <dbl> <dbl>
 1      0.23 Ideal     E     SI2      61.5    55   326  3.95  3.98  2.43
 2      0.21 Premium   E     SI1      59.8    61   326  3.89  3.84  2.31
 3      0.23 Good      E     VS1      56.9    65   327  4.05  4.07  2.31
 4      0.29 Premium   I     VS2      62.4    58   334  4.2   4.23  2.63
 5      0.31 Good      J     SI2      63.3    58   335  4.34  4.35  2.75
 6      0.24 Very Good J     VVS2     62.8    57   336  3.94  3.96  2.48
 7      0.24 Very Good I     VVS1     62.3    57   336  3.95  3.98  2.47
 8      0.26 Very Good H     SI1      61.9    55   337  4.07  4.11  2.53
 9      0.22 Fair      E     VS2      65.1    61   337  3.87  3.78  2.49
10      0.23 Very Good H     VS1      59.4    61   338  4     4.05  2.39
# … with 53,930 more rows
# ℹ Use `print(n = ...)` to see more rows
…
